{
  "formatVersion": 1,
  "database": {
    "version": 1,
    "identityHash": "68d1819b9e6e52e086308641204a3026",
    "entities": [
      {
        "tableName": "OrderDbEntity",
        "createSql": "CREATE TABLE IF NOT EXISTS `${TABLE_NAME}` (`itemId` INTEGER NOT NULL, `title` TEXT NOT NULL, `description` TEXT NOT NULL, `image_url` TEXT NOT NULL, `modification_date` TEXT, `website_url` TEXT NOT NULL, PRIMARY KEY(`itemId`))",
        "fields": [
          {
            "fieldPath": "itemId",
            "columnName": "itemId",
            "affinity": "INTEGER",
            "notNull": true
          },
          {
            "fieldPath": "title",
            "columnName": "title",
            "affinity": "TEXT",
            "notNull": true
          },
          {
            "fieldPath": "description",
            "columnName": "description",
            "affinity": "TEXT",
            "notNull": true
          },
          {
            "fieldPath": "imageUrl",
            "columnName": "image_url",
            "affinity": "TEXT",
            "notNull": true
          },
          {
            "fieldPath": "modificationDate",
            "columnName": "modification_date",
            "affinity": "TEXT",
            "notNull": false
          },
          {
            "fieldPath": "websiteUrl",
            "columnName": "website_url",
            "affinity": "TEXT",
            "notNull": true
          }
        ],
        "primaryKey": {
          "columnNames": [
            "itemId"
          ],
          "autoGenerate": false
        },
        "indices": [],
        "foreignKeys": []
      }
    ],
    "views": [],
    "setupQueries": [
      "CREATE TABLE IF NOT EXISTS room_master_table (id INTEGER PRIMARY KEY,identity_hash TEXT)",
      "INSERT OR REPLACE INTO room_master_table (id,identity_hash) VALUES(42, '68d1819b9e6e52e086308641204a3026')"
    ]
  }
}